<!--?xml version="1.0"?-->
<svg xmlns="http://www.w3.org/2000/svg" viewBox="0 0 50 50">
    <path d="M 18.5 1 C 17.672 1 17 1.672 17 2.5 L 17 8.5 C 17 9.328 17.672 10 18.5 10 L 31.5 10 C 32.328 10 33 9.328 33 8.5 L 33 2.5 C 33 1.672 32.328 1 31.5 1 L 18.5 1 z M 9 3 C 7.346 3 6 4.346 6 6 L 6 44 C 6 45.654 7.346 47 9 47 L 41 47 C 42.158 47 43.164062 46.341906 43.664062 45.378906 C 43.878062 44.965906 44 44.496 44 44 L 44 6 C 44 4.346 42.654 3 41 3 L 35 3 L 35 8 L 39 8 L 39 42 L 11 42 L 11 8 L 15 8 L 15 3 L 9 3 z M 31.59375 17 C 30.977875 17.000125 30.362578 17.235578 29.892578 17.705078 L 28.998047 18.597656 L 32.402344 22.001953 C 32.399344 22.003953 33.294922 21.107422 33.294922 21.107422 C 34.234922 20.167422 34.235875 18.644078 33.296875 17.705078 C 32.826375 17.235078 32.209625 16.999875 31.59375 17 z M 27.587891 20.003906 L 16.707031 30.90625 L 16.021484 34.414062 C 15.953484 34.762062 16.260375 35.069953 16.609375 35.001953 L 20.117188 34.314453 L 30.996094 23.412109 L 27.587891 20.003906 z"></path>
</svg>
